{
  "type": "service_account",
  "project_id": "gearth-210619",
  "private_key_id": "d70adabc5e281f92df7fe7d0428ef8677702cf22",
  "private_key": "-----BEGIN PRIVATE KEY-----\nMIIEvAIBADANBgkqhkiG9w0BAQEFAASCBKYwggSiAgEAAoIBAQDd2bPn39XN9Xgi\n+gGRvz8hBH6oR0WgdZOnvZshlamrON3h4zX2fALNB3kvww2CHiXQRPZLxhFJebO4\nMDQqC1qkccSFo2AxZ6l+5NFX25kdT7u2iocnTFhAqzVd3hze+AK6wmLuLje/Jnaj\nlArqHMqMsDGaNt7PoXH1IM0P/I+xDYgUqZXwbZ6/pYMFFUlTpIDjkFx6roIwBXmS\neXI4CnW088+wV5u7qBl13xurGoyFQxPdi6IJnFsCYE//zYAZC73sGvc+hGoQU61E\n9ry25AX7gcdhx8VoA3vZeXCT3VwykW0aU7I6lxiN8IaR7ImiLOcnl0WGG/r6RcKe\n44VTWrlLAgMBAAECggEALRmTzEChy2Pqj1m5tfJmGAU85mLO0cb1RHV0Mwik3G0M\nFl7FWp1tSFcLmN0TQu90CnnqhA749rHqCjiqch2qyKFkLTLAXGrRdz13HWBEKURL\nSdmxjhikHElx6Oo9fkp265aW3ArDRHXCSpDPAzblKmKrQsmC1Dzi2M1ZQrW6VGil\n6au9WJSGu+JvhjyWEaN2MfmvBq354uFXUIWFbvuJzRKzb4jmzmPIqgNg7estuB9k\nPCQY0M2w2CwLs6iqEwhayVIGiijU19LiHSurYMk2XhCDuPMQjtNesf1AxinZblDG\nLJCNF9zWhqvvkTomLjL4XpQVJ6MUxoVZhLUVQjF7YQKBgQDxADfaNTcciW/lRyzk\n8526hfOAy7mvi9c46909Lm2SJMWzdphmO6xI9/kgzIl0LFlnpbIFv0V2xkFAuta9\n6lNsUV19dHpRa88QVDXTfmeekCYozYHIb6lCttJpr9OQCwhmB9QneUWEcYtVuDiK\nI/y425XnJQGK7k7xQUkkNEghUQKBgQDrqF3/0p5+XGLcAR6NkUiDH9bUVhtMo7Io\ntjJVgEPtmdD8MJgZofuQR47Nl+lbJtYulLp7tC89ICWErZT6pES5t4wABVlC9eEO\nnV12oiz8YxkGVKgvi7tm78+TK7Klgpc30F2nTO91uO4cjmyz89aNOiVh65SZGO6J\nE/+apTxp2wKBgEW+gGtftyFFDOLXZECl1+Gg3kVJr+UDnTdV2uLXytHeXnB/Q79i\nSYucZ7Z8OtMp+n2qUAilv96NpVisOXUgmR/htCKYUMW7Y2MgW6tnC2mx4bkxL/vn\nhJ5P9jirr5gh+T49ycHasKmRinc2JvajT4HX2lvYM8gXCzV6ZUZa8vzhAoGASRho\nT7mcv8UYRPVz7KVrwIBXunUa8qKz2DzrT+oBJ+nWEONhylGcHhyUBuFf2I4rUTeA\nwG4bWPJnsMfGthfN2W09V6RRE5wAuu/E1c9n9MEoOfZ4VIcbEcrAr/2V5BClpwJS\niloqzHEYKnNi9E5l9lha0AyqgvJgytQRLH6kRpECgYB7JvG2R9UMwtmNfHZcY2jx\nSEwfCb05qyMpBgeat89Gto/tmHg+mMgrov4WZpOdjSzF5s6VCB0qGQ+1W1MERLDE\nndaLBnlVJtVXvgHtkFiLjSjmDY89Eb7XsJlDXmQlNUixgGHJ6Fkn1p+o4bvWREWv\nfKtVSxmctuAEZkR4NgsglA==\n-----END PRIVATE KEY-----\n",
  "client_email": "gearthengine@gearth-210619.iam.gserviceaccount.com",
  "client_id": "115861631978926549712",
  "auth_uri": "https://accounts.google.com/o/oauth2/auth",
  "token_uri": "https://accounts.google.com/o/oauth2/token",
  "auth_provider_x509_cert_url": "https://www.googleapis.com/oauth2/v1/certs",
  "client_x509_cert_url": "https://www.googleapis.com/robot/v1/metadata/x509/gearthengine%40gearth-210619.iam.gserviceaccount.com"
}
